%YAML 1.1
%TAG !u! tag:unity3d.com,2011:
--- !u!1045 &1
EditorBuildSettings:
  m_ObjectHideFlags: 0
  serializedVersion: 2
  m_Scenes:
  - enabled: 0
    path: 
    guid: 00000000000000000000000000000000
  - enabled: 1
    path: Assets/Scenes/Start.unity
    guid: a5b987054454cc64ca74cf5f80d74edb
  - enabled: 1
    path: Assets/Scenes/Level1.unity
    guid: 946ce4497f83e0c47825dcce1c3c57c1
  - enabled: 1
    path: Assets/Scenes/Level2.unity
    guid: e218c286e22c1774cb92f2ffe390e0e2
  - enabled: 1
    path: Assets/Scenes/Level3.unity
    guid: 8351b8e239820164db2bc2c70428b6a4
  m_configObjects: {}
